..................
----------------------------------------------------------------------
Ran 18 tests in 0.332s

OK
Name             Stmts   Miss Branch BrPart  Cover   Missing
------------------------------------------------------------
Collatz.py          23      0     10      0   100%
TestCollatz.py      83      4      0      0    95%   132-135
------------------------------------------------------------
TOTAL              106      4     10      0    97%
